final/simulation/qsim/final.msim.vcd
$comment
	File created using the following command:
		vcd file final.msim.vcd -direction
$end
$date
	Thu Dec 15 17:30:46 2022
$end
$version
	ModelSim Version 10.1d
$end
$timescale
	1ps
$end
$scope module final_vlg_vec_tst $end
$var reg 1 ! aa $end
$var reg 1 " inputa $end
$var reg 1 # inputb $end
$var wire 1 $ a $end
$var wire 1 % b $end
$var wire 1 & beep $end
$var wire 1 ' c $end
$var wire 1 ( d $end
$var wire 1 ) e $end
$var wire 1 * f $end
$var wire 1 + g $end
$var wire 1 , h $end
$var wire 1 - hh $end
$var wire 1 . j $end
$var wire 1 / k $end
$var wire 1 0 sampler $end
$scope module i1 $end
$var wire 1 1 gnd $end
$var wire 1 2 vcc $end
$var wire 1 3 unknown $end
$var tri1 1 4 devclrn $end
$var tri1 1 5 devpor $end
$var tri1 1 6 devoe $end
$var wire 1 7 beep~output_o $end
$var wire 1 8 a~output_o $end
$var wire 1 9 b~output_o $end
$var wire 1 : c~output_o $end
$var wire 1 ; d~output_o $end
$var wire 1 < e~output_o $end
$var wire 1 = f~output_o $end
$var wire 1 > g~output_o $end
$var wire 1 ? h~output_o $end
$var wire 1 @ j~output_o $end
$var wire 1 A k~output_o $end
$var wire 1 B hh~output_o $end
$var wire 1 C aa~input_o $end
$var wire 1 D aa~inputclkctrl_outclk $end
$var wire 1 E inst19|sub|9~0_combout $end
$var wire 1 F inst19|sub|9~q $end
$var wire 1 G inst19|sub|87~0_combout $end
$var wire 1 H inst19|sub|87~q $end
$var wire 1 I inst19|sub|99~0_combout $end
$var wire 1 J inst19|sub|99~q $end
$var wire 1 K inst19|sub|110~0_combout $end
$var wire 1 L inst19|sub|110~q $end
$var wire 1 M inst25|sub|89~0_combout $end
$var wire 1 N inst8|sub|99~0_combout $end
$var wire 1 O inst8|sub|99~q $end
$var wire 1 P inst8|sub|77~combout $end
$var wire 1 Q inst8|sub|9~q $end
$var wire 1 R inst8|sub|86~combout $end
$var wire 1 S inst8|sub|87~q $end
$var wire 1 T inst25|sub|89~1_combout $end
$var wire 1 U inst25|sub|77~combout $end
$var wire 1 V inst25|sub|9~q $end
$var wire 1 W inst25|sub|89~2_combout $end
$var wire 1 X inst25|sub|86~combout $end
$var wire 1 Y inst25|sub|87~q $end
$var wire 1 Z inst25|sub|98~combout $end
$var wire 1 [ inst25|sub|99~q $end
$var wire 1 \ inst25|sub|107~combout $end
$var wire 1 ] inst25|sub|108~combout $end
$var wire 1 ^ inst25|sub|110~q $end
$var wire 1 _ inst11|sub|89~0_combout $end
$var wire 1 ` inst11|sub|89~1_combout $end
$var wire 1 a inst11|sub|77~combout $end
$var wire 1 b inst11|sub|9~q $end
$var wire 1 c inst11|sub|86~combout $end
$var wire 1 d inst11|sub|87~q $end
$var wire 1 e inputb~input_o $end
$var wire 1 f inputa~input_o $end
$var wire 1 g inst48|10~0_combout $end
$var wire 1 h inst48|10~1_combout $end
$var wire 1 i inst49|9~0_combout $end
$var wire 1 j inst49|9~1_combout $end
$var wire 1 k inst48|9~0_combout $end
$var wire 1 l inst48|9~1_combout $end
$var wire 1 m inst49|10~0_combout $end
$var wire 1 n inst7|69~0_combout $end
$var wire 1 o inst7|68~0_combout $end
$var wire 1 p inst7|70~combout $end
$var wire 1 q inst7|67~0_combout $end
$var wire 1 r inst7|71~combout $end
$var wire 1 s inst7|66~0_combout $end
$var wire 1 t inst7|72~combout $end
$var wire 1 u inst44|33~combout $end
$var wire 1 v inst44|34~0_combout $end
$var wire 1 w inst44|34~1_combout $end
$var wire 1 x inst44|34~2_combout $end
$upscope $end
$upscope $end
$enddefinitions $end
#0
$dumpvars
0!
x"
x#
x$
1%
0&
x'
x(
x)
x*
x+
x,
x-
x.
x/
x0
01
12
x3
14
15
16
07
x8
19
x:
x;
x<
x=
x>
x?
x@
xA
xB
0C
0D
1E
0F
0G
0H
0I
0J
0K
0L
0M
0N
0O
0P
0Q
0R
0S
0T
0U
0V
0W
0X
0Y
0Z
0[
0\
0]
0^
0_
0`
0a
0b
0c
0d
xe
xf
xg
xh
0i
0j
xk
xl
0m
xn
0o
xp
xq
xr
xs
xt
xu
xv
xw
xx
$end
#2000
1!
1C
1D
00
1F
1G
0E
#4000
0!
0C
0D
10
#6000
1!
1C
1D
00
1H
0F
1E
#8000
0!
0C
0D
10
#10000
1!
1C
1D
00
1F
1I
0G
0E
#12000
0!
0C
0D
10
#14000
1!
1C
1D
00
1J
0H
0F
xi
1E
xj
xo
x9
x%
#16000
0!
0C
0D
10
#18000
1!
1C
1D
00
1F
1G
0E
#20000
0!
0C
0D
10
#22000
1!
1C
1D
00
1H
0F
1E
#24000
0!
0C
0D
10
#26000
1!
1C
1D
00
1F
1K
0I
0G
0E
#28000
0!
0C
0D
10
#30000
1!
1C
1D
00
1L
0J
0H
0F
xm
0i
1E
0j
#32000
0!
0C
0D
10
#34000
1!
1C
1D
00
1F
1G
0E
#36000
0!
0C
0D
10
#38000
1!
1C
1D
00
1H
0F
1E
#40000
0!
0C
0D
10
#42000
1!
1C
1D
00
1F
1I
0G
0E
#44000
0!
0C
0D
10
#46000
1!
1C
1D
00
1J
0H
0F
xi
1E
xj
#48000
0!
0C
0D
10
#50000
1!
1C
1D
00
1F
1G
0E
#52000
0!
0C
0D
10
#54000
1!
1C
1D
00
1H
0F
1E
#56000
0!
0C
0D
10
#58000
1!
1C
1D
00
1F
1M
0K
0I
0G
0E
1P
#60000
0!
0C
0D
10
#62000
1!
1C
1D
00
1Q
0L
0J
0H
0F
1R
0P
0m
0M
0i
1E
0R
1P
0j
0o
19
1%
#64000
0!
0C
0D
10
#66000
1!
1C
1D
00
1F
1G
0E
#68000
0!
0C
0D
10
#70000
1!
1C
1D
00
1H
0F
1E
#72000
0!
0C
0D
10
#74000
1!
1C
1D
00
1F
1I
0G
0E
#76000
0!
0C
0D
10
#78000
1!
1C
1D
00
1J
0H
0F
xi
1E
xj
xo
x9
x%
#80000
0!
0C
0D
10
#82000
1!
1C
1D
00
1F
1G
0E
#84000
0!
0C
0D
10
#86000
1!
1C
1D
00
1H
0F
1E
#88000
0!
0C
0D
10
#90000
1!
1C
1D
00
1F
1K
0I
0G
0E
#92000
0!
0C
0D
10
#94000
1!
1C
1D
00
1L
0J
0H
0F
xm
0i
1E
0j
#96000
0!
0C
0D
10
#98000
1!
1C
1D
00
1F
1G
0E
#100000
0!
0C
0D
10
#102000
1!
1C
1D
00
1H
0F
1E
#104000
0!
0C
0D
10
#106000
1!
1C
1D
00
1F
1I
0G
0E
#108000
0!
0C
0D
10
#110000
1!
1C
1D
00
1J
0H
0F
xi
1E
xj
#112000
0!
0C
0D
10
#114000
1!
1C
1D
00
1F
1G
0E
#116000
0!
0C
0D
10
#118000
1!
1C
1D
00
1H
0F
1E
#120000
0!
0C
0D
10
#122000
1!
1C
1D
00
1F
1M
0K
0I
0G
0E
1R
0P
#124000
0!
0C
0D
10
#126000
1!
1C
1D
00
1S
0Q
0L
0J
0H
0F
1P
0m
0M
0i
1E
0P
0j
0o
19
1%
#128000
0!
0C
0D
10
#130000
1!
1C
1D
00
1F
1G
0E
#132000
0!
0C
0D
10
#134000
1!
1C
1D
00
1H
0F
1E
#136000
0!
0C
0D
10
#138000
1!
1C
1D
00
1F
1I
0G
0E
#140000
0!
0C
0D
10
#142000
1!
1C
1D
00
1J
0H
0F
xi
1E
xj
xo
x9
x%
#144000
0!
0C
0D
10
#146000
1!
1C
1D
00
1F
1G
0E
#148000
0!
0C
0D
10
#150000
1!
1C
1D
00
1H
0F
1E
#152000
0!
0C
0D
10
#154000
1!
1C
1D
00
1F
1K
0I
0G
0E
#156000
0!
0C
0D
10
#158000
1!
1C
1D
00
1L
0J
0H
0F
xm
0i
1E
0j
#160000
0!
0C
0D
10
#162000
1!
1C
1D
00
1F
1G
0E
#164000
0!
0C
0D
10
#166000
1!
1C
1D
00
1H
0F
1E
#168000
0!
0C
0D
10
#170000
1!
1C
1D
00
1F
1I
0G
0E
#172000
0!
0C
0D
10
#174000
1!
1C
1D
00
1J
0H
0F
xi
1E
xj
#176000
0!
0C
0D
10
#178000
1!
1C
1D
00
1F
1G
0E
#180000
0!
0C
0D
10
#182000
1!
1C
1D
00
1H
0F
1E
#184000
0!
0C
0D
10
#186000
1!
1C
1D
00
1F
1M
0K
0I
0G
0E
1P
#188000
0!
0C
0D
10
#190000
1!
1C
1D
00
1Q
0L
0J
0H
0F
0R
0P
1N
0m
0M
0i
1E
1R
1P
0N
0j
0o
19
1%
#192000
0!
0C
0D
10
#194000
1!
1C
1D
00
1F
1G
0E
#196000
0!
0C
0D
10
#198000
1!
1C
1D
00
1H
0F
1E
#200000
0!
0C
0D
10
#202000
1!
1C
1D
00
1F
1I
0G
0E
#204000
0!
0C
0D
10
#206000
1!
1C
1D
00
1J
0H
0F
xi
1E
xj
xo
x9
x%
#208000
0!
0C
0D
10
#210000
1!
1C
1D
00
1F
1G
0E
#212000
0!
0C
0D
10
#214000
1!
1C
1D
00
1H
0F
1E
#216000
0!
0C
0D
10
#218000
1!
1C
1D
00
1F
1K
0I
0G
0E
#220000
0!
0C
0D
10
#222000
1!
1C
1D
00
1L
0J
0H
0F
xm
0i
1E
0j
#224000
0!
0C
0D
10
#226000
1!
1C
1D
00
1F
1G
0E
#228000
0!
0C
0D
10
#230000
1!
1C
1D
00
1H
0F
1E
#232000
0!
0C
0D
10
#234000
1!
1C
1D
00
1F
1I
0G
0E
#236000
0!
0C
0D
10
#238000
1!
1C
1D
00
1J
0H
0F
xi
1E
xj
#240000
0!
0C
0D
10
#242000
1!
1C
1D
00
1F
1G
0E
#244000
0!
0C
0D
10
#246000
1!
1C
1D
00
1H
0F
1E
#248000
0!
0C
0D
10
#250000
1!
1C
1D
00
1F
1M
0K
0I
0G
0E
0R
0P
1N
#252000
0!
0C
0D
10
#254000
1!
1C
1D
00
0S
0Q
1O
0L
0J
0H
0F
1P
0m
0M
1E
0P
#256000
0!
0C
0D
10
#258000
1!
1C
1D
00
1F
1G
0E
#260000
0!
0C
0D
10
#262000
1!
1C
1D
00
1H
0F
1E
#264000
0!
0C
0D
10
#266000
1!
1C
1D
00
1F
1I
0G
0E
#268000
0!
0C
0D
10
#270000
1!
1C
1D
00
1J
0H
0F
1E
#272000
0!
0C
0D
10
#274000
1!
1C
1D
00
1F
1G
0E
#276000
0!
0C
0D
10
#278000
1!
1C
1D
00
1H
0F
1E
#280000
0!
0C
0D
10
#282000
1!
1C
1D
00
1F
1K
0I
0G
0E
#284000
0!
0C
0D
10
#286000
1!
1C
1D
00
1L
0J
0H
0F
xm
1E
#288000
0!
0C
0D
10
#290000
1!
1C
1D
00
1F
1G
0E
#292000
0!
0C
0D
10
#294000
1!
1C
1D
00
1H
0F
1E
#296000
0!
0C
0D
10
#298000
1!
1C
1D
00
1F
1I
0G
0E
#300000
0!
0C
0D
10
#302000
1!
1C
1D
00
1J
0H
0F
1E
#304000
0!
0C
0D
10
#306000
1!
1C
1D
00
1F
1G
0E
#308000
0!
0C
0D
10
#310000
1!
1C
1D
00
1H
0F
1E
#312000
0!
0C
0D
10
#314000
1!
1C
1D
00
1F
1M
0K
0I
0G
0E
1P
#316000
0!
0C
0D
10
#318000
1!
1C
1D
00
1Q
0L
0J
0H
0F
1R
0P
0m
0M
1E
0R
1P
#320000
0!
0C
0D
10
#322000
1!
1C
1D
00
1F
1G
0E
#324000
0!
0C
0D
10
#326000
1!
1C
1D
00
1H
0F
1E
#328000
0!
0C
0D
10
#330000
1!
1C
1D
00
1F
1I
0G
0E
#332000
0!
0C
0D
10
#334000
1!
1C
1D
00
1J
0H
0F
1E
#336000
0!
0C
0D
10
#338000
1!
1C
1D
00
1F
1G
0E
#340000
0!
0C
0D
10
#342000
1!
1C
1D
00
1H
0F
1E
#344000
0!
0C
0D
10
#346000
1!
1C
1D
00
1F
1K
0I
0G
0E
#348000
0!
0C
0D
10
#350000
1!
1C
1D
00
1L
0J
0H
0F
xm
1E
#352000
0!
0C
0D
10
#354000
1!
1C
1D
00
1F
1G
0E
#356000
0!
0C
0D
10
#358000
1!
1C
1D
00
1H
0F
1E
#360000
0!
0C
0D
10
#362000
1!
1C
1D
00
1F
1I
0G
0E
#364000
0!
0C
0D
10
#366000
1!
1C
1D
00
1J
0H
0F
1E
#368000
0!
0C
0D
10
#370000
1!
1C
1D
00
1F
1G
0E
#372000
0!
0C
0D
10
#374000
1!
1C
1D
00
1H
0F
1E
#376000
0!
0C
0D
10
#378000
1!
1C
1D
00
1F
1M
0K
0I
0G
0E
1R
0P
#380000
0!
0C
0D
10
#382000
1!
1C
1D
00
1S
0Q
0L
0J
0H
0F
0R
0N
0m
0M
1E
1T
1R
1N
1U
17
1&
0T
0U
07
0&
#384000
0!
0C
0D
10
#386000
1!
1C
1D
00
1F
1G
0E
#388000
0!
0C
0D
10
#390000
1!
1C
1D
00
1H
0F
1E
#392000
0!
0C
0D
10
#394000
1!
1C
1D
00
1F
1I
0G
0E
#396000
0!
0C
0D
10
#398000
1!
1C
1D
00
1J
0H
0F
1E
#400000
0!
0C
0D
10
#402000
1!
1C
1D
00
1F
1G
0E
#404000
0!
0C
0D
10
#406000
1!
1C
1D
00
1H
0F
1E
#408000
0!
0C
0D
10
#410000
1!
1C
1D
00
1F
1K
0I
0G
0E
#412000
0!
0C
0D
10
#414000
1!
1C
1D
00
1L
0J
0H
0F
xm
1E
#416000
0!
0C
0D
10
#418000
1!
1C
1D
00
1F
1G
0E
#420000
0!
0C
0D
10
#422000
1!
1C
1D
00
1H
0F
1E
#424000
0!
0C
0D
10
#426000
1!
1C
1D
00
1F
1I
0G
0E
#428000
0!
0C
0D
10
#430000
1!
1C
1D
00
1J
0H
0F
1E
#432000
0!
0C
0D
10
#434000
1!
1C
1D
00
1F
1G
0E
#436000
0!
0C
0D
10
#438000
1!
1C
1D
00
1H
0F
1E
#440000
0!
0C
0D
10
#442000
1!
1C
1D
00
1F
1M
0K
0I
0G
0E
0R
0N
1T
1U
17
1&
#444000
0!
0C
0D
10
#446000
1!
1C
1D
00
1V
0S
0O
0L
0J
0H
0F
0U
1P
0i
0m
0M
1E
0T
0j
0P
1U
07
0&
0o
19
1%
#448000
0!
0C
0D
10
#450000
1!
1C
1D
00
1F
1G
0E
#452000
0!
0C
0D
10
#454000
1!
1C
1D
00
1H
0F
1E
#456000
0!
0C
0D
10
#458000
1!
1C
1D
00
1F
1I
0G
0E
#460000
0!
0C
0D
10
#462000
1!
1C
1D
00
1J
0H
0F
xi
1E
xj
xo
x9
x%
#464000
0!
0C
0D
10
#466000
1!
1C
1D
00
1F
1G
0E
#468000
0!
0C
0D
10
#470000
1!
1C
1D
00
1H
0F
1E
#472000
0!
0C
0D
10
#474000
1!
1C
1D
00
1F
1K
0I
0G
0E
#476000
0!
0C
0D
10
#478000
1!
1C
1D
00
1L
0J
0H
0F
xm
0i
1E
0j
#480000
0!
0C
0D
10
#482000
1!
1C
1D
00
1F
1G
0E
#484000
0!
0C
0D
10
#486000
1!
1C
1D
00
1H
0F
1E
#488000
0!
0C
0D
10
#490000
1!
1C
1D
00
1F
1I
0G
0E
#492000
0!
0C
0D
10
#494000
1!
1C
1D
00
1J
0H
0F
xi
1E
xj
#496000
0!
0C
0D
10
#498000
1!
1C
1D
00
1F
1G
0E
#500000
0!
0C
0D
10
#502000
1!
1C
1D
00
1H
0F
1E
#504000
0!
0C
0D
10
#506000
1!
1C
1D
00
1F
1M
0K
0I
0G
0E
1P
#508000
0!
0C
0D
10
#510000
1!
1C
1D
00
1Q
0L
0J
0H
0F
1R
0P
0m
0M
0i
1E
0R
1P
0j
0o
19
1%
#512000
0!
0C
0D
10
#514000
1!
1C
1D
00
1F
1G
0E
#516000
0!
0C
0D
10
#518000
1!
1C
1D
00
1H
0F
1E
#520000
0!
0C
0D
10
#522000
1!
1C
1D
00
1F
1I
0G
0E
#524000
0!
0C
0D
10
#526000
1!
1C
1D
00
1J
0H
0F
xi
1E
xj
xo
x9
x%
#528000
0!
0C
0D
10
#530000
1!
1C
1D
00
1F
1G
0E
#532000
0!
0C
0D
10
#534000
1!
1C
1D
00
1H
0F
1E
#536000
0!
0C
0D
10
#538000
1!
1C
1D
00
1F
1K
0I
0G
0E
#540000
0!
0C
0D
10
#542000
1!
1C
1D
00
1L
0J
0H
0F
xm
0i
1E
0j
#544000
0!
0C
0D
10
#546000
1!
1C
1D
00
1F
1G
0E
#548000
0!
0C
0D
10
#550000
1!
1C
1D
00
1H
0F
1E
#552000
0!
0C
0D
10
#554000
1!
1C
1D
00
1F
1I
0G
0E
#556000
0!
0C
0D
10
#558000
1!
1C
1D
00
1J
0H
0F
xi
1E
xj
#560000
0!
0C
0D
10
#562000
1!
1C
1D
00
1F
1G
0E
#564000
0!
0C
0D
10
#566000
1!
1C
1D
00
1H
0F
1E
#568000
0!
0C
0D
10
#570000
1!
1C
1D
00
1F
1M
0K
0I
0G
0E
1R
0P
#572000
0!
0C
0D
10
#574000
1!
1C
1D
00
1S
0Q
0L
0J
0H
0F
1P
0m
0M
0i
1E
0P
0j
0o
19
1%
#576000
0!
0C
0D
10
#578000
1!
1C
1D
00
1F
1G
0E
#580000
0!
0C
0D
10
#582000
1!
1C
1D
00
1H
0F
1E
#584000
0!
0C
0D
10
#586000
1!
1C
1D
00
1F
1I
0G
0E
#588000
0!
0C
0D
10
#590000
1!
1C
1D
00
1J
0H
0F
xi
1E
xj
xo
x9
x%
#592000
0!
0C
0D
10
#594000
1!
1C
1D
00
1F
1G
0E
#596000
0!
0C
0D
10
#598000
1!
1C
1D
00
1H
0F
1E
#600000
0!
0C
0D
10
#602000
1!
1C
1D
00
1F
1K
0I
0G
0E
#604000
0!
0C
0D
10
#606000
1!
1C
1D
00
1L
0J
0H
0F
xm
0i
1E
0j
#608000
0!
0C
0D
10
#610000
1!
1C
1D
00
1F
1G
0E
#612000
0!
0C
0D
10
#614000
1!
1C
1D
00
1H
0F
1E
#616000
0!
0C
0D
10
#618000
1!
1C
1D
00
1F
1I
0G
0E
#620000
0!
0C
0D
10
#622000
1!
1C
1D
00
1J
0H
0F
xi
1E
xj
#624000
0!
0C
0D
10
#626000
1!
1C
1D
00
1F
1G
0E
#628000
0!
0C
0D
10
#630000
1!
1C
1D
00
1H
0F
1E
#632000
0!
0C
0D
10
#634000
1!
1C
1D
00
1F
1M
0K
0I
0G
0E
1P
#636000
0!
0C
0D
10
#638000
1!
1C
1D
00
1Q
0L
0J
0H
0F
0R
0P
1N
0m
0M
0i
1E
1R
1P
0N
0j
0o
19
1%
#640000
0!
0C
0D
10
#642000
1!
1C
1D
00
1F
1G
0E
#644000
0!
0C
0D
10
#646000
1!
1C
1D
00
1H
0F
1E
#648000
0!
0C
0D
10
#650000
1!
1C
1D
00
1F
1I
0G
0E
#652000
0!
0C
0D
10
#654000
1!
1C
1D
00
1J
0H
0F
xi
1E
xj
xo
x9
x%
#656000
0!
0C
0D
10
#658000
1!
1C
1D
00
1F
1G
0E
#660000
0!
0C
0D
10
#662000
1!
1C
1D
00
1H
0F
1E
#664000
0!
0C
0D
10
#666000
1!
1C
1D
00
1F
1K
0I
0G
0E
#668000
0!
0C
0D
10
#670000
1!
1C
1D
00
1L
0J
0H
0F
xm
0i
1E
0j
#672000
0!
0C
0D
10
#674000
1!
1C
1D
00
1F
1G
0E
#676000
0!
0C
0D
10
#678000
1!
1C
1D
00
1H
0F
1E
#680000
0!
0C
0D
10
#682000
1!
1C
1D
00
1F
1I
0G
0E
#684000
0!
0C
0D
10
#686000
1!
1C
1D
00
1J
0H
0F
xi
1E
xj
#688000
0!
0C
0D
10
#690000
1!
1C
1D
00
1F
1G
0E
#692000
0!
0C
0D
10
#694000
1!
1C
1D
00
1H
0F
1E
#696000
0!
0C
0D
10
#698000
1!
1C
1D
00
1F
1M
0K
0I
0G
0E
0R
0P
1N
#700000
0!
0C
0D
10
#702000
1!
1C
1D
00
0S
0Q
1O
0L
0J
0H
0F
1P
0m
0M
1E
0P
#704000
0!
0C
0D
10
#706000
1!
1C
1D
00
1F
1G
0E
#708000
0!
0C
0D
10
#710000
1!
1C
1D
00
1H
0F
1E
#712000
0!
0C
0D
10
#714000
1!
1C
1D
00
1F
1I
0G
0E
#716000
0!
0C
0D
10
#718000
1!
1C
1D
00
1J
0H
0F
1E
#720000
0!
0C
0D
10
#722000
1!
1C
1D
00
1F
1G
0E
#724000
0!
0C
0D
10
#726000
1!
1C
1D
00
1H
0F
1E
#728000
0!
0C
0D
10
#730000
1!
1C
1D
00
1F
1K
0I
0G
0E
#732000
0!
0C
0D
10
#734000
1!
1C
1D
00
1L
0J
0H
0F
xm
1E
#736000
0!
0C
0D
10
#738000
1!
1C
1D
00
1F
1G
0E
#740000
0!
0C
0D
10
#742000
1!
1C
1D
00
1H
0F
1E
#744000
0!
0C
0D
10
#746000
1!
1C
1D
00
1F
1I
0G
0E
#748000
0!
0C
0D
10
#750000
1!
1C
1D
00
1J
0H
0F
1E
#752000
0!
0C
0D
10
#754000
1!
1C
1D
00
1F
1G
0E
#756000
0!
0C
0D
10
#758000
1!
1C
1D
00
1H
0F
1E
#760000
0!
0C
0D
10
#762000
1!
1C
1D
00
1F
1M
0K
0I
0G
0E
1P
#764000
0!
0C
0D
10
#766000
1!
1C
1D
00
1Q
0L
0J
0H
0F
1R
0P
0m
0M
1E
0R
1P
#768000
0!
0C
0D
10
#770000
1!
1C
1D
00
1F
1G
0E
#772000
0!
0C
0D
10
#774000
1!
1C
1D
00
1H
0F
1E
#776000
0!
0C
0D
10
#778000
1!
1C
1D
00
1F
1I
0G
0E
#780000
0!
0C
0D
10
#782000
1!
1C
1D
00
1J
0H
0F
1E
#784000
0!
0C
0D
10
#786000
1!
1C
1D
00
1F
1G
0E
#788000
0!
0C
0D
10
#790000
1!
1C
1D
00
1H
0F
1E
#792000
0!
0C
0D
10
#794000
1!
1C
1D
00
1F
1K
0I
0G
0E
#796000
0!
0C
0D
10
#798000
1!
1C
1D
00
1L
0J
0H
0F
xm
1E
#800000
0!
0C
0D
10
#802000
1!
1C
1D
00
1F
1G
0E
#804000
0!
0C
0D
10
#806000
1!
1C
1D
00
1H
0F
1E
#808000
0!
0C
0D
10
#810000
1!
1C
1D
00
1F
1I
0G
0E
#812000
0!
0C
0D
10
#814000
1!
1C
1D
00
1J
0H
0F
1E
#816000
0!
0C
0D
10
#818000
1!
1C
1D
00
1F
1G
0E
#820000
0!
0C
0D
10
#822000
1!
1C
1D
00
1H
0F
1E
#824000
0!
0C
0D
10
#826000
1!
1C
1D
00
1F
1M
0K
0I
0G
0E
1R
0P
#828000
0!
0C
0D
10
#830000
1!
1C
1D
00
1S
0Q
0L
0J
0H
0F
1W
0R
0N
0m
0M
1E
1T
1X
0W
1R
1N
0U
17
1&
0T
0X
1U
07
0&
#832000
0!
0C
0D
10
#834000
1!
1C
1D
00
1F
1G
0E
#836000
0!
0C
0D
10
#838000
1!
1C
1D
00
1H
0F
1E
#840000
0!
0C
0D
10
#842000
1!
1C
1D
00
1F
1I
0G
0E
#844000
0!
0C
0D
10
#846000
1!
1C
1D
00
1J
0H
0F
1E
#848000
0!
0C
0D
10
#850000
1!
1C
1D
00
1F
1G
0E
#852000
0!
0C
0D
10
#854000
1!
1C
1D
00
1H
0F
1E
#856000
0!
0C
0D
10
#858000
1!
1C
1D
00
1F
1K
0I
0G
0E
#860000
0!
0C
0D
10
#862000
1!
1C
1D
00
1L
0J
0H
0F
xm
1E
#864000
0!
0C
0D
10
#866000
1!
1C
1D
00
1F
1G
0E
#868000
0!
0C
0D
10
#870000
1!
1C
1D
00
1H
0F
1E
#872000
0!
0C
0D
10
#874000
1!
1C
1D
00
1F
1I
0G
0E
#876000
0!
0C
0D
10
#878000
1!
1C
1D
00
1J
0H
0F
1E
#880000
0!
0C
0D
10
#882000
1!
1C
1D
00
1F
1G
0E
#884000
0!
0C
0D
10
#886000
1!
1C
1D
00
1H
0F
1E
#888000
0!
0C
0D
10
#890000
1!
1C
1D
00
1F
1M
0K
0I
0G
0E
1W
0R
0N
1T
1X
0U
17
1&
#892000
0!
0C
0D
10
#894000
1!
1C
1D
00
1Y
0V
0S
0O
0L
0J
0H
0F
1Z
0X
0W
1U
1P
0i
0m
0M
1E
0T
0Z
1X
0j
0P
0U
07
0&
0o
19
1%
#896000
0!
0C
0D
10
#898000
1!
1C
1D
00
1F
1G
0E
#900000
0!
0C
0D
10
#902000
1!
1C
1D
00
1H
0F
1E
#904000
0!
0C
0D
10
#906000
1!
1C
1D
00
1F
1I
0G
0E
#908000
0!
0C
0D
10
#910000
1!
1C
1D
00
1J
0H
0F
xi
1E
xj
xo
x9
x%
#912000
0!
0C
0D
10
#914000
1!
1C
1D
00
1F
1G
0E
#916000
0!
0C
0D
10
#918000
1!
1C
1D
00
1H
0F
1E
#920000
0!
0C
0D
10
#922000
1!
1C
1D
00
1F
1K
0I
0G
0E
#924000
0!
0C
0D
10
#926000
1!
1C
1D
00
1L
0J
0H
0F
xm
0i
1E
0j
#928000
0!
0C
0D
10
#930000
1!
1C
1D
00
1F
1G
0E
#932000
0!
0C
0D
10
#934000
1!
1C
1D
00
1H
0F
1E
#936000
0!
0C
0D
10
#938000
1!
1C
1D
00
1F
1I
0G
0E
#940000
0!
0C
0D
10
#942000
1!
1C
1D
00
1J
0H
0F
xi
1E
xj
#944000
0!
0C
0D
10
#946000
1!
1C
1D
00
1F
1G
0E
#948000
0!
0C
0D
10
#950000
1!
1C
1D
00
1H
0F
1E
#952000
0!
0C
0D
10
#954000
1!
1C
1D
00
1F
1M
0K
0I
0G
0E
1P
#956000
0!
0C
0D
10
#958000
1!
1C
1D
00
1Q
0L
0J
0H
0F
1R
0P
0m
0M
0i
1E
0R
1P
0j
0o
19
1%
#960000
0!
0C
0D
10
#962000
1!
1C
1D
00
1F
1G
0E
#964000
0!
0C
0D
10
#966000
1!
1C
1D
00
1H
0F
1E
#968000
0!
0C
0D
10
#970000
1!
1C
1D
00
1F
1I
0G
0E
#972000
0!
0C
0D
10
#974000
1!
1C
1D
00
1J
0H
0F
xi
1E
xj
xo
x9
x%
#976000
0!
0C
0D
10
#978000
1!
1C
1D
00
1F
1G
0E
#980000
0!
0C
0D
10
#982000
1!
1C
1D
00
1H
0F
1E
#984000
0!
0C
0D
10
#986000
1!
1C
1D
00
1F
1K
0I
0G
0E
#988000
0!
0C
0D
10
#990000
1!
1C
1D
00
1L
0J
0H
0F
xm
0i
1E
0j
#992000
0!
0C
0D
10
#994000
1!
1C
1D
00
1F
1G
0E
#996000
0!
0C
0D
10
#998000
1!
1C
1D
00
1H
0F
1E
